{
  "countries": [
    {"flag": "1.png", "country": "Afganistan"},
    {"flag": "2.png", "country": "Albánsko"},
    {"flag": "3.png", "country": "Argentína"},
    {"flag": "4.png", "country": "Austrália"},
    {"flag": "5.png", "country": "Rakúsko"},
    {"flag": "6.png", "country": "Bahrajn"},
    {"flag": "7.png", "country": "Bielorusko"},
    {"flag": "8.png", "country": "Belize"},
    {"flag": "9.png", "country": "Bhután"},
    {"flag": "10.png", "country": "Brazília"},
    {"flag": "11.png", "country": "Bosna a Hercegovina"},
    {"flag": "12.png", "country": "Kanada"},
    {"flag": "13.png", "country": "Čína"},
    {"flag": "14.png", "country": "DR Kongo"},
    {"flag": "15.png", "country": "Chorvátsko"},
    {"flag": "16.png", "country": "Severná Kórea"},
    {"flag": "17.png", "country": "Južná Kórea"},
    {"flag": "18.png", "country": "Egypt"},
    {"flag": "19.png", "country": "Fiji"},
    {"flag": "20.png", "country": "Fínsko"},
    {"flag": "21.png", "country": "Francúzsko"},
    {"flag": "22.png", "country": "Nemecko"},
    {"flag": "23.png", "country": "Gruzínsko"},
    {"flag": "24.png", "country": "Grécko"},
    {"flag": "25.png", "country": "Vatikán"},
    {"flag": "26.png", "country": "Island"},
    {"flag": "27.png", "country": "India"},
    {"flag": "28.png", "country": "Indonézia"},
    {"flag": "29.png", "country": "Irán"},
    {"flag": "30.png", "country": "Izrael"},
    {"flag": "31.png", "country": "Taliansko"},
    {"flag": "32.png", "country": "Libanon"},
    {"flag": "33.png", "country": "Libéria"},
    {"flag": "34.png", "country": "Maledivy"},
    {"flag": "35.png", "country": "Mongolsko"},
    {"flag": "36.png", "country": "Nepál"},
    {"flag": "37.png", "country": "Severné Macedónsko"},
    {"flag": "38.png", "country": "Nórsko"},
    {"flag": "39.png", "country": "Pakistán"},
    {"flag": "40.png", "country": "Poľsko"},
    {"flag": "41.png", "country": "Portugalsko"},
    {"flag": "42.png", "country": "Katar"},
    {"flag": "43.png", "country": "Rusko"},
    {"flag": "44.png", "country": "Jamajka"},
    {"flag": "45.png", "country": "Japonsko"},
    {"flag": "46.png", "country": "Saudská Arábia"},
    {"flag": "47.png", "country": "Slovinsko"},
    {"flag": "48.png", "country": "Španielsko"},
    {"flag": "49.png", "country": "Južná Afrika"},
    {"flag": "50.png", "country": "Švajčiarsko"},
    {"flag": "51.png", "country": "USA"},
    {"flag": "52.png", "country": "Veľká Británia"},
    {"flag": "53.png", "country": "Ukrajina"},
    {"flag": "54.png", "country": "Vietnam"},
    {"flag": "55.png", "country": "Seychely"},
    {"flag": "56.png", "country": "Turkmenistan"},
    {"flag": "57.png", "country": "Srí Lanka"},
    {"flag": "58.png", "country": "Svätý Tomáš a Princov ostrov"},
    {"flag": "59.png", "country": "Srbsko"},
    {"flag": "60.png", "country": "Maďarsko"},
    {"flag": "61.png", "country": "Maroko"},
    {"flag": "62.png", "country": "Faerské ostrovy"},
    {"flag": "63.png", "country": "Grónsko"},
    {"flag": "64.png", "country": "Kazachstan"},
    {"flag": "65.png", "country": "Čierna Hora"},
    {"flag": "66.png", "country": "Turecko"},
    {"flag": "67.png", "country": "Uganda"},
    {"flag": "68.png", "country": "Wales"},
    {"flag": "69.png", "country": "Severné Írsko"},
    {"flag": "70.png", "country": "Somálsko"}
  ]
}